header	n	sp	mf	ma	mc	mx	mh	bf	bs	tf	ts	cf	cs	cn	total
glued	4	1	0	0	0	0	0	0	0	0	0	0	0	0	1
glued	5	1	0	0	0	0	0	0	0	0	0	0	0	0	1
glued	6	1	1	0	0	0	0	0	0	0	0	0	0	0	2
glued	7	1	0	0	0	0	0	1	0	1	0	0	0	0	3
glued	8	3	0	0	0	0	0	1	0	1	0	2	0	0	7
glued	9	3	2	0	0	0	1	1	0	1	0	2	0	2	12
glued	10	5	3	0	0	0	0	4	1	4	1	6	0	4	28
glued	11	10	3	0	0	0	1	6	1	6	1	16	0	10	54
glued	12	20	13	1	1	0	0	11	2	11	2	38	0	28	127
glued	13	35	24	1	1	0	1	25	4	25	4	80	0	66	266
glued	14	75	48	2	2	0	0	56	5	56	5	208	3	154	614
glued	15	151	105	5	5	0	2	113	9	113	9	464	5	375	1356
glued	16	317	242	7	7	1	2	257	15	257	15	1115	15	884	3134
glued	17	657	518	15	15	1	5	557	30	557	30	2580	35	2091	7091
glued	18	1426	1185	28	28	4	8	1250	52	1250	52	6156	84	4959	16482
glued	19	3074	2664	61	61	5	11	2763	109	2763	109	14382	191	11736	37929
glued	20	6783	6092	122	122	11	19	6267	207	6267	207	34236	457	27832	88622
glued	21	15006	13849	270	270	18	22	14125	422	14125	422	80703	1054	66009	206295
glued	22	33707	31932	570	570	35	43	32225	835	32225	835	192141	2482	156845	484445
glued	23	75944	73458	1259	1259	63	51	73561	1721	73561	1721	455548	5795	372956	1136897
glued	24	172893	170112	2729	2729	124	105	169304	3544	169304	3544	1086269	13601	888193	2682451
glued	25	395073	394356	6054	6054	239	148	390258	7475	390258	7475	2586652	31931	2117276	6333249
glued	26	908830	918597	13395	13395	474	290	904769	15902	904769	15902	6179943	75120	5054559	15005945
glued	27	2098043	2142885	29981	29981	945	454	2102583	34379	2102583	34379	14763845	176999	12078748	35595805
glued	28	4866320	5016593	67308	67308	1911	826	4905597	75030	4905597	75030	35347971	417863	28902161	84649515
glued	29	11320574	11766661	152290	152290	3917	1359	11472236	165752	11472236	165752	84670699	988002	69228582	201560350
glued	30	26427788	27673169	345897	345897	8094	2352	26908706	369140	26908706	369140	203133686	2340245	166012187	480845007
glued	31	61853133	65203834	790496	790496	16975	3958	63245392	829576	63245392	829576	487682310	5551716	398494238	1148537092
glued	32	145160950	153963391	1813615	1813615	35876	6696	148991342	1877307	148991342	1877307	1172237243	13191092	957517799	2747477575
glued	33	341431589	364151886	4180886	4180886	76749	11466	351620380	4277558	351620380	4277558	2819860668	31388574	2302844911	6579923491
glued	34	804878006	862779754	9673363	9673363	165615	19465	831365583	9800078	831365583	9800078	6789965627	74798062	5543373958	15777658535
glued	35	1901058538	2047145114	22467366	22467366	360878	33807	1968780807	22571155	1968780807	22571155	16361898245	178482514	13354884177	37871501929
